<svg width="202" height="119" viewBox="0 0 202 119" fill="none" xmlns="http://www.w3.org/2000/svg">
<path d="M22.8547 2.22251C15.8844 2.28029 2.22412 6.31615 2.22412 25.4598C2.22412 41.6788 21.4491 57.52 21.9651 57.5422C22.3254 57.5422 42.1375 43.4389 42.1508 24.5842C42.1597 5.56054 30.1408 2.16028 22.8547 2.22251ZM22.1919 29.7357C20.9981 29.7357 19.8311 29.3819 18.8384 28.7192C17.8458 28.0564 17.0721 27.1144 16.6152 26.0123C16.1584 24.9102 16.0388 23.6974 16.2718 22.5274C16.5047 21.3574 17.0795 20.2827 17.9237 19.4392C18.7679 18.5956 19.8434 18.0212 21.0143 17.7884C22.1852 17.5557 23.3989 17.6752 24.5019 18.1317C25.6048 18.5882 26.5475 19.3613 27.2108 20.3532C27.8741 21.345 28.2281 22.5112 28.2281 23.7041C28.2281 25.3038 27.5921 26.8379 26.4601 27.9691C25.3281 29.1002 23.7928 29.7357 22.1919 29.7357V29.7357Z" fill="#DAD0FF"/>
<path fill-rule="evenodd" clip-rule="evenodd" d="M36.652 4.53015C41.1961 8.26848 44.3796 14.5754 44.3749 24.5849V24.5855C44.3677 34.779 39.0275 43.5193 33.8833 49.5721C31.29 52.6233 28.6888 55.0601 26.7075 56.7388C25.7163 57.5786 24.8719 58.2357 24.2509 58.6909C23.9425 58.9171 23.6773 59.1021 23.4693 59.2382C23.3689 59.3039 23.259 59.3732 23.1526 59.4336C23.1031 59.4617 23.0205 59.5072 22.9217 59.5524C22.8736 59.5744 22.7876 59.6121 22.6785 59.6483L22.675 59.6495C22.6074 59.672 22.3298 59.7643 21.965 59.7643H21.9171L21.8693 59.7623C21.3923 59.7417 21.0308 59.5649 20.985 59.5425C20.983 59.5416 20.9817 59.5409 20.9809 59.5405C20.8657 59.4864 20.7708 59.4311 20.7122 59.3958C20.5895 59.3216 20.4677 59.2378 20.3622 59.1622C20.1434 59.0054 19.8727 58.796 19.566 58.547C18.9472 58.0445 18.1166 57.3275 17.1485 56.4282C15.2125 54.6297 12.687 52.0656 10.1749 48.9759C5.225 42.8881 0 34.3638 0 25.4595C0 15.2939 3.66202 8.8249 8.54045 4.94486C13.3198 1.14359 19.0063 0.0317776 22.8357 -7.04643e-05M36.652 4.53015C32.1909 0.860189 26.779 -0.0336595 22.8362 -7.51271e-05ZM33.8247 7.9616C30.4572 5.19125 26.217 4.41599 22.8737 4.44454L22.8731 4.44455C19.7322 4.47059 15.1037 5.40567 11.3106 8.4225C7.6163 11.3607 4.44816 16.4815 4.44816 25.4595C4.44816 32.7743 8.83564 40.28 13.6272 46.1731C15.9858 49.0739 18.3634 51.4879 20.1771 53.1728C20.8998 53.8441 21.5267 54.3938 22.0204 54.8078C22.5087 54.4366 23.1239 53.9475 23.8308 53.3486C25.6661 51.7937 28.0864 49.5262 30.4928 46.6949C35.3479 40.9824 39.9204 33.2439 39.9267 24.5829M33.8247 7.9616C37.1093 10.6637 39.9308 15.5686 39.9267 24.5823ZM23.6507 20.1846C22.9541 19.8963 22.1877 19.8209 21.4482 19.9679C20.7087 20.1148 20.0295 20.4776 19.4963 21.0104C18.9632 21.5431 18.6001 22.2218 18.4531 22.9607C18.306 23.6996 18.3815 24.4655 18.67 25.1616C18.9585 25.8576 19.4471 26.4525 20.074 26.8711C20.7009 27.2896 21.4379 27.513 22.1919 27.513C23.2029 27.513 24.1725 27.1117 24.8874 26.3973C25.6023 25.683 26.004 24.7141 26.004 23.7038C26.004 22.9505 25.7804 22.214 25.3615 21.5876C24.9426 20.9612 24.3473 20.4729 23.6507 20.1846ZM20.5804 15.6085C22.1827 15.29 23.8436 15.4535 25.3529 16.0782C26.8623 16.7029 28.1524 17.7608 29.06 19.1182C29.9677 20.4756 30.4521 22.0714 30.4521 23.7038C30.4521 25.8929 29.5819 27.9924 28.0328 29.5403C26.4837 31.0882 24.3826 31.9578 22.1919 31.9578C20.5582 31.9578 18.9611 31.4737 17.6027 30.5668C16.2444 29.6598 15.1856 28.3707 14.5604 26.8625C13.9352 25.3543 13.7716 23.6947 14.0904 22.0936C14.4091 20.4925 15.1958 19.0218 16.351 17.8674C17.5062 16.7131 18.9781 15.927 20.5804 15.6085Z" fill="#8269DF"/>
<path d="M29.7004 73.8115L26.0011 66.566C25.1459 64.891 23.0938 64.2259 21.4175 65.0805C19.7413 65.935 19.0757 67.9856 19.9309 69.6606L23.6302 76.906C24.4854 78.581 26.5376 79.2461 28.2138 78.3915C29.8901 77.537 30.5556 75.4864 29.7004 73.8115Z" fill="#DAD0FF"/>
<path d="M44.0255 88.327L38.2696 82.5755C36.9389 81.2458 34.7815 81.2458 33.4509 82.5755C32.1203 83.9051 32.1203 86.0608 33.4509 87.3904L39.2069 93.142C40.5375 94.4716 42.6949 94.4716 44.0255 93.142C45.3561 91.8124 45.3561 89.6566 44.0255 88.327Z" fill="#DAD0FF"/>
<path d="M61.3593 100.414L54.3097 96.3469C52.68 95.4067 50.5961 95.9646 49.6552 97.5931C48.7143 99.2215 49.2727 101.304 50.9024 102.244L57.952 106.311C59.5817 107.251 61.6655 106.693 62.6064 105.065C63.5473 103.436 62.9889 101.354 61.3593 100.414Z" fill="#DAD0FF"/>
<path d="M81.3848 108.124L73.6095 105.716C71.8121 105.159 69.9034 106.164 69.3463 107.96C68.7892 109.756 69.7947 111.663 71.5921 112.22L79.3674 114.628C81.1648 115.185 83.0736 114.18 83.6307 112.384C84.1878 110.588 83.1822 108.681 81.3848 108.124Z" fill="#DAD0FF"/>
<path d="M105.928 112.068L97.8411 111.138C95.9717 110.922 94.2816 112.262 94.0663 114.13C93.851 115.998 95.192 117.687 97.0614 117.902L105.148 118.833C107.018 119.048 108.708 117.708 108.923 115.84C109.138 113.972 107.797 112.283 105.928 112.068Z" fill="#DAD0FF"/>
<path d="M131.049 111.018L123.001 112.237C121.14 112.519 119.861 114.254 120.143 116.113C120.425 117.972 122.162 119.251 124.022 118.969L132.07 117.75C133.931 117.468 135.211 115.733 134.929 113.874C134.647 112.014 132.91 110.736 131.049 111.018Z" fill="#DAD0FF"/>
<path d="M156.313 104.555L148.537 106.96C146.74 107.516 145.734 109.423 146.29 111.219C146.846 113.016 148.755 114.021 150.553 113.465L158.329 111.06C160.126 110.504 161.132 108.597 160.576 106.8C160.019 105.004 158.111 103.999 156.313 104.555Z" fill="#DAD0FF"/>
<path d="M178.539 94.9261L171.288 98.6226C169.612 99.4772 168.946 101.528 169.801 103.203C170.656 104.878 172.708 105.543 174.385 104.688L181.636 100.992C183.312 100.137 183.978 98.0866 183.122 96.4116C182.267 94.7366 180.215 94.0716 178.539 94.9261Z" fill="#DAD0FF"/>
<path d="M51.1583 41.6035L59.2139 69.2545L65.2457 63.6185L72.0558 71.428L78.1854 64.9164L71.3263 57.947L77.5938 52.3154L51.1583 41.6035Z" fill="#DAD0FF"/>
<path fill-rule="evenodd" clip-rule="evenodd" d="M48.7653 38.9551L80.4861 51.8087L73.5778 58.016L80.3453 64.8923L72.0117 73.7454L65.1312 65.8553L58.4271 72.1195L48.7653 38.9551ZM53.5514 44.2519L60.0007 66.3894L65.3601 61.3817L72.0999 69.1105L76.0254 64.9403L69.0748 57.8779L74.7014 52.8221L53.5514 44.2519Z" fill="#8269DF"/>
<path d="M188.642 57.6754C184.381 57.7109 176.023 60.1778 176.023 71.8987C176.023 81.8194 187.784 91.509 188.099 91.5223C188.317 91.5223 200.439 82.895 200.443 71.3653C200.452 59.7155 193.099 57.6354 188.642 57.6754ZM188.237 74.5033C187.507 74.5033 186.793 74.2869 186.186 73.8816C185.579 73.4762 185.106 72.9 184.826 72.2259C184.547 71.5518 184.474 70.81 184.616 70.0944C184.759 69.3788 185.11 68.7214 185.627 68.2055C186.143 67.6896 186.801 67.3382 187.517 67.1959C188.233 67.0535 188.976 67.1266 189.65 67.4058C190.325 67.685 190.901 68.1579 191.307 68.7645C191.713 69.3712 191.929 70.0845 191.929 70.8141C191.928 71.7922 191.539 72.7299 190.847 73.4215C190.155 74.1131 189.216 74.5021 188.237 74.5033V74.5033Z" fill="#DAD0FF"/>
<path fill-rule="evenodd" clip-rule="evenodd" d="M197.207 58.9361C200.043 61.2704 202.005 65.1937 202 71.3665C201.997 77.6677 198.697 83.0576 195.538 86.7745C193.944 88.6505 192.345 90.1484 191.126 91.1806C190.517 91.6971 189.997 92.1019 189.614 92.3832C189.423 92.5228 189.258 92.638 189.128 92.7236C189.065 92.7648 188.994 92.8096 188.924 92.8493C188.892 92.8677 188.836 92.8986 188.768 92.9296C188.736 92.9446 188.676 92.9708 188.6 92.9962L188.598 92.997C188.551 93.0126 188.356 93.078 188.099 93.078H188.067L188.034 93.0766C187.7 93.0625 187.447 92.9389 187.417 92.924C187.416 92.9234 187.415 92.923 187.415 92.9228C187.335 92.8856 187.271 92.8479 187.232 92.8245C187.15 92.7753 187.071 92.7207 187.005 92.6731C186.866 92.5741 186.697 92.4433 186.508 92.2896C186.126 91.9792 185.614 91.5377 185.019 90.9851C183.829 89.88 182.278 88.305 180.734 86.4068C177.699 82.6745 174.466 77.4154 174.466 71.8986C174.466 65.6229 176.728 61.6041 179.765 59.188C182.732 56.8273 186.257 56.1397 188.628 56.1198M197.207 58.9361C194.43 56.6497 191.068 56.098 188.629 56.1198ZM195.227 61.3373C193.216 59.6814 190.674 59.2129 188.656 59.231L188.655 59.231C186.765 59.2468 183.981 59.8106 181.704 61.622C179.496 63.3785 177.58 66.4535 177.58 71.8986C177.58 76.3026 180.227 80.8487 183.151 84.4447C184.587 86.2107 186.035 87.6806 187.139 88.7061C187.522 89.0618 187.86 89.3608 188.139 89.5977C188.412 89.3866 188.741 89.1222 189.113 88.8077C190.229 87.862 191.701 86.4825 193.165 84.7604C196.122 81.2813 198.884 76.5929 198.886 71.3647V71.3641C198.89 65.8871 197.181 62.9455 195.227 61.3373ZM189.054 68.843C188.664 68.6816 188.235 68.6393 187.821 68.7216C187.407 68.804 187.026 69.0072 186.728 69.3055C186.429 69.6039 186.226 69.984 186.143 70.3979C186.061 70.8118 186.103 71.2407 186.265 71.6306C186.426 72.0204 186.7 72.3536 187.051 72.5881C187.402 72.8224 187.815 72.9475 188.237 72.9476C188.803 72.9466 189.345 72.7215 189.746 72.3214C190.146 71.9214 190.371 71.3791 190.372 70.8135C190.372 70.3917 190.247 69.9795 190.013 69.6288C189.778 69.278 189.445 69.0045 189.054 68.843ZM188.237 74.5033L188.239 76.059C189.63 76.0573 190.964 75.5044 191.948 74.5215C192.931 73.5386 193.485 72.206 193.486 70.816L193.486 70.8141C193.486 69.7768 193.178 68.7628 192.602 67.9003C192.025 67.0377 191.205 66.3655 190.246 65.9685C189.287 65.5716 188.232 65.4677 187.213 65.6701C186.195 65.8724 185.26 66.372 184.526 67.1055C183.792 67.839 183.292 68.7735 183.089 69.7909C182.887 70.8083 182.991 71.8629 183.388 72.8212C183.785 73.7796 184.458 74.5987 185.321 75.175C186.184 75.7514 187.199 76.059 188.237 76.059V74.5033Z" fill="#8269DF"/>
</svg>
