<svg width="220" height="152" viewBox="0 0 220 152" fill="none" xmlns="http://www.w3.org/2000/svg">
<path d="M212.222 67.5967L1.11328 82.7793L2.46031 101.542L213.569 86.3591L212.222 67.5967Z" fill="#FFD3B6"/>
<path fill-rule="evenodd" clip-rule="evenodd" d="M0 81.8164L213.186 66.4844L214.682 87.3243L1.49619 102.656L0 81.8164ZM2.22668 83.7445L3.42456 100.429L212.456 85.3962L211.258 68.7113L2.22668 83.7445Z" fill="#FFB779"/>
<path d="M117.881 74.3806L1.11426 82.7783L2.46129 101.541L119.228 93.143L117.881 74.3806Z" fill="#FFB779"/>
<path d="M43.9001 27.5833L19.5963 24.5664L16.582 48.8912L40.8858 51.9081L43.9001 27.5833Z" fill="#DAD0FF"/>
<path fill-rule="evenodd" clip-rule="evenodd" d="M18.6909 23.4043L45.0617 26.6778L41.7913 53.0697L15.4205 49.7962L18.6909 23.4043ZM20.5018 25.728L17.7437 47.9857L39.9804 50.746L42.7385 28.4883L20.5018 25.728Z" fill="#8269DF"/>
<path fill-rule="evenodd" clip-rule="evenodd" d="M16.0723 47.8403L42.803 26.4873L44.0723 28.1343L17.3415 49.4873L16.0723 47.8403Z" fill="#8269DF"/>
<path fill-rule="evenodd" clip-rule="evenodd" d="M40.4245 52.4873L19.0723 24.784L20.72 23.4873L42.0723 51.1906L40.4245 52.4873Z" fill="#8269DF"/>
<path d="M149.829 1.30332L119.438 10.7305L128.857 41.147L159.248 31.7199L149.829 1.30332Z" fill="#DAD0FF"/>
<path fill-rule="evenodd" clip-rule="evenodd" d="M118.136 10.043L150.515 -0.0012543L160.55 32.405L128.171 42.4492L118.136 10.043ZM120.741 11.4155L129.544 39.8424L157.945 31.0324L149.142 2.60553L120.741 11.4155Z" fill="#8269DF"/>
<path d="M214.068 111.479L179.381 115.336L183.235 150.053L217.922 146.195L214.068 111.479Z" fill="#DAD0FF"/>
<path fill-rule="evenodd" clip-rule="evenodd" d="M178.231 114.416L214.988 110.328L219.072 147.115L182.315 151.203L178.231 114.416ZM180.531 116.256L184.156 148.903L216.772 145.275L213.148 112.629L180.531 116.256Z" fill="#8269DF"/>
<path fill-rule="evenodd" clip-rule="evenodd" d="M183.072 148.192L213.449 110.488L215.072 111.785L184.695 149.488L183.072 148.192Z" fill="#8269DF"/>
<path fill-rule="evenodd" clip-rule="evenodd" d="M216.752 146.487L179.072 117.105L180.392 115.487L218.072 144.87L216.752 146.487Z" fill="#8269DF"/>
<path d="M61.5055 132.237L45.0913 124.01L36.8717 140.438L53.2859 148.665L61.5055 132.237Z" fill="#DAD0FF"/>
<path fill-rule="evenodd" clip-rule="evenodd" d="M44.6262 122.613L62.9025 131.773L53.7509 150.064L35.4746 140.904L44.6262 122.613ZM45.5563 125.409L38.2687 139.975L52.8208 147.268L60.1084 132.703L45.5563 125.409Z" fill="#8269DF"/>
<path d="M87.0723 43.4873C96.4611 43.4873 104.072 35.8761 104.072 26.4873C104.072 17.0985 96.4611 9.4873 87.0723 9.4873C77.6834 9.4873 70.0723 17.0985 70.0723 26.4873C70.0723 35.8761 77.6834 43.4873 87.0723 43.4873Z" fill="#FFB779"/>
<path fill-rule="evenodd" clip-rule="evenodd" d="M87.0723 10.565C78.2804 10.565 71.1517 17.6928 71.1517 26.4873C71.1517 35.2818 78.2804 42.4096 87.0723 42.4096C95.8641 42.4096 102.993 35.2818 102.993 26.4873C102.993 17.6928 95.8641 10.565 87.0723 10.565ZM69.0723 26.4873C69.0723 16.547 77.1303 8.4873 87.0723 8.4873C97.0142 8.4873 105.072 16.547 105.072 26.4873C105.072 36.4276 97.0142 44.4873 87.0723 44.4873C77.1303 44.4873 69.0723 36.4276 69.0723 26.4873Z" fill="#FFD3B6"/>
<path d="M86.7222 12.4873C87.0539 14.1626 87.3185 16.0234 87.562 17.7244C87.6664 18.9087 87.8206 20.0855 88.024 21.2502C88.1276 22.1875 88.0641 23.1413 87.8379 24.0455C87.6116 24.9498 87.2281 25.7829 86.7138 26.4873H86.4198C85.9077 25.7816 85.5265 24.9479 85.3025 24.0437C85.0785 23.1395 85.017 22.1864 85.1223 21.2502C85.433 19.6471 85.5842 17.6419 85.8403 16.0079C86.0209 14.843 86.1973 13.678 86.4282 12.5182L86.7222 12.4873Z" fill="#FFD3B6"/>
<path d="M97.0723 26.6681C95.8695 27.1049 94.544 27.4533 93.3217 27.774C92.4773 27.9219 91.6426 28.1324 90.8229 28.4044C89.3845 28.7638 88.0737 27.9122 87.0723 26.6792V26.2921C88.0541 25.0591 89.3845 24.2075 90.8229 24.5725C91.6433 24.84 92.4779 25.0487 93.3217 25.1973C94.5489 25.5069 95.8695 25.8553 97.0723 26.3032V26.6902V26.6681Z" fill="#FFD3B6"/>
<path d="M116.072 143.487C122.7 143.487 128.072 137.891 128.072 130.987C128.072 124.084 122.7 118.487 116.072 118.487C109.445 118.487 104.072 124.084 104.072 130.987C104.072 137.891 109.445 143.487 116.072 143.487Z" fill="#FFB779"/>
<path fill-rule="evenodd" clip-rule="evenodd" d="M116.072 119.579C110.007 119.579 105.088 124.686 105.088 130.987C105.088 137.289 110.007 142.395 116.072 142.395C122.138 142.395 127.056 137.289 127.056 130.987C127.056 124.686 122.138 119.579 116.072 119.579ZM103.072 130.987C103.072 123.532 108.892 117.487 116.072 117.487C123.253 117.487 129.072 123.532 129.072 130.987C129.072 138.442 123.253 144.487 116.072 144.487C108.892 144.487 103.072 138.442 103.072 130.987Z" fill="#FFD3B6"/>
<path d="M121.072 122.641C120.717 123.865 120.257 125.169 119.83 126.351C119.546 127.067 119.159 128.058 118.93 128.795C118.683 129.441 118.32 130.016 117.866 130.481C117.412 130.946 116.878 131.289 116.301 131.487L116.112 131.35C116.004 130.381 116.119 129.396 116.445 128.498C116.706 127.645 117.345 127.093 117.822 126.42L118.542 125.413C119.276 124.443 120.077 123.394 120.865 122.487L121.054 122.63L121.072 122.641Z" fill="#FFD3B6"/>
<path d="M121.946 135.487C121.103 135.216 120.21 134.829 119.391 134.459C118.846 134.169 118.288 133.92 117.72 133.714C116.76 133.281 116.264 132.155 116.072 130.907L116.194 130.665C117.191 130.341 118.23 130.41 118.955 131.294C119.493 132.074 120.28 132.865 120.855 133.604C121.267 134.136 121.679 134.667 122.072 135.239L121.946 135.482V135.487Z" fill="#FFD3B6"/>
</svg>
